{
    "ports": {
        "alerts": 9000,
        "status": 9001,
        "health": 9002,
        "satellite1": 9003,
        "satellite2": 9004
    },
    "satellites": {
        "satellite1_name": "DSP-1 F16",
        "satellite2_name": "DSP-1 F17"
    }
}
